…
(Note that `na.rm = TRUE` is passed on to `mean()` in the same way as in
`purrr::map()`.)

If the function doesn’t fit on one line, put each argument on a new
line:

``` r
flights %>%
  group_by(dest) %>% 
  summarise_at(
    vars(contains("delay"), distance, air_time), 
    funs(mean), 
    na.rm = TRUE
  )
#> # A tibble: 105 x 5
#>   dest  dep_delay arr_delay distance air_time
#>   <chr>     <dbl>     <dbl>    <dbl>    <dbl>
#> 1 ABQ       13.7       4.38     1826    249  
#> 2 ACK        6.46      4.85      199     42.1
#> 3 ALB       23.6      14.4       143     31.8
#> 4 ANC       12.9     - 2.50     3370    413  
#> 5 ATL       12.5      11.3       757    113  
#> # ... with 100 more rows
```
…
`summarise_if()` allows you to pick variables to summarise based on some
property of the column, specified by a **predicate** function. A
predicate function is a function that takes a whole column and returns
either a single `TRUE` or a single `FALSE`. Commonly this a function
that tells you if a variable is a specific type like `is.numeric()`,
`is.character()`, or `is.logical()`.

This makes it easier to summarise only numeric columns:

``` r
starwars %>%
  group_by(species) %>%
  summarise_if(is.numeric, funs(mean), na.rm = TRUE)
#> # A tibble: 38 x 4
#>   species  height  mass birth_year
#>   <chr>     <dbl> <dbl>      <dbl>
#> 1 Aleena     79.0  15.0      NaN  
#> 2 Besalisk  198   102        NaN  
#> 3 Cerean    198    82.0       92.0
#> 4 Chagrian  196   NaN        NaN  
#> 5 Clawdite  168    55.0      NaN  
#> # ... with 33 more rows
```

## Mutate

`mutate_all()`, `mutate_if()` and `mutate_at()` work in a similar way to
their summarise equivalents.

``` r
mutate_all(df, funs(log10))
#> # A tibble: 100 x 3
#>         x       y        z
#>     <dbl>   <dbl>    <dbl>
#> 1 -0.127  -0.0905 -0.0190 
#> 2 -0.152  -0.110  -0.00927
#> 3 -0.325  -0.0512 -0.307  
#> 4 -0.291  -0.356  -1.40   
#> 5 -0.0783 -0.0613 -0.00983
#> # ... with 95 more rows
```

If you need a transformation that is not already a function, it’s
easiest to create your own function:

``` r
double <- function(x) x * 2
half <- function(x) x / 2

mutate_all(df, funs(half, double))
#> # A tibble: 100 x 9
#>       x     y      z x_half y_half z_half x_double y_double z_double
#>   <dbl> <dbl>  <dbl>  <dbl>  <dbl>  <dbl>    <dbl>    <dbl>    <dbl>
#> 1 0.747 0.812 0.957   0.374  0.406 0.479     1.49     1.62    1.91  
#> 2 0.705 0.776 0.979   0.353  0.388 0.489     1.41     1.55    1.96  
#> 3 0.473 0.889 0.494   0.237  0.444 0.247     0.947    1.78    0.987 
#> 4 0.512 0.441 0.0397  0.256  0.220 0.0199    1.02     0.881   0.0794
#> 5 0.835 0.868 0.978   0.418  0.434 0.489     1.67     1.74    1.96  
#> # ... with 95 more rows
```

The default names are generated in the same way as `summarise()`. That
means that you may want to use a `transmute()` variant if you want to
apply multiple transformations and don’t want the original values:

``` r
transmute_all(df, funs(half, double))
#> # A tibble: 100 x 6
#>   x_half y_half z_half x_double y_double z_double
#>    <dbl>  <dbl>  <dbl>    <dbl>    <dbl>    <dbl>
#> 1  0.374  0.406 0.479     1.49     1.62    1.91  
#> 2  0.353  0.388 0.489     1.41     1.55    1.96  
#> 3  0.237  0.444 0.247     0.947    1.78    0.987 
#> 4  0.256  0.220 0.0199    1.02     0.881   0.0794
#> 5  0.418  0.434 0.489     1.67     1.74    1.96  
#> # ... with 95 more rows
```
