…
df %>%
  mutate(grade = grade_1(score))
#> Warning in if (x >= 90) {: the condition has length > 1 and only the first
#> element will be used
#> Warning in if (x >= 80) {: the condition has length > 1 and only the first
#> element will be used
#> Warning in if (x >= 70) {: the condition has length > 1 and only the first
#> element will be used
#> Warning in if (x >= 60) {: the condition has length > 1 and only the first
#> element will be used
#> # A tibble: 10 x 2
#>   score grade
#>   <int> <chr>
<<<<<<< HEAD
#> 1    62 D    
#> 2    25 D    
#> 3    68 D    
#> 4    88 D    
#> 5    47 D    
||||||| merged common ancestors
#> 1    93 A    
#> 2    82 A    
#> 3    86 A    
#> 4     9 A    
#> 5    80 A    
=======
#> 1    97 A    
#> 2    43 A    
#> 3    77 A    
#> 4    24 A    
#> 5    11 A    
>>>>>>> 8ee078a2481245f7e5771f84e027d04d6e276be1
#> # ... with 5 more rows
```
…
``` r
df %>%
  mutate(grade = map_chr(score, grade_1))
#> # A tibble: 10 x 2
#>   score grade
#>   <int> <chr>
<<<<<<< HEAD
#> 1    62 D    
#> 2    25 F    
#> 3    68 D    
#> 4    88 B    
#> 5    47 F    
||||||| merged common ancestors
#> 1    93 A    
#> 2    82 B    
#> 3    86 B    
#> 4     9 F    
#> 5    80 B    
=======
#> 1    97 A    
#> 2    43 F    
#> 3    77 C    
#> 4    24 F    
#> 5    11 F    
>>>>>>> 8ee078a2481245f7e5771f84e027d04d6e276be1
#> # ... with 5 more rows
```
…
grade_2(seq(0, 100, by = 10))
#>  [1] "F" "F" "F" "F" "F" "F" "D" "C" "B" "A" "A"

df %>%
  mutate(grade = grade_2(score))
#> # A tibble: 10 x 2
#>   score grade
#>   <int> <chr>
<<<<<<< HEAD
#> 1    62 D    
#> 2    25 F    
#> 3    68 D    
#> 4    88 B    
#> 5    47 F    
||||||| merged common ancestors
#> 1    93 A    
#> 2    82 B    
#> 3    86 B    
#> 4     9 F    
#> 5    80 C    
=======
#> 1    97 A    
#> 2    43 F    
#> 3    77 C    
#> 4    24 F    
#> 5    11 F    
>>>>>>> 8ee078a2481245f7e5771f84e027d04d6e276be1
#> # ... with 5 more rows
```
…
